{
    "podName": "Teralytic",
    "classPrefix": "TL",
    "podVersion": "1.0.6",
    "licenseName": "MIT",
    "authorName": "Teralytic",
    "authorEmail": "support@teralytic.com",
    "projectDescription": "Teralytic API",
    "gitRepoURL": "https://gitlab.com/teralytic/teralytic-ios"
}
  